module github.com/containers/podman/v5

// Warning: if there is a "toolchain" directive anywhere in this file (and most of the
// time there shouldn't be), its version must be an exact match to the "go" directive.

go 1.22.8

require (
	github.com/BurntSushi/toml v1.4.0
	github.com/Microsoft/go-winio v0.6.2
	github.com/blang/semver/v4 v4.0.0
	github.com/buger/goterm v1.0.4
	github.com/checkpoint-restore/checkpointctl v1.3.0
	github.com/checkpoint-restore/go-criu/v7 v7.2.0
	github.com/containernetworking/plugins v1.5.1
	github.com/containers/buildah v1.39.0
	github.com/containers/common v0.62.0
	github.com/containers/conmon v2.0.20+incompatible
	github.com/containers/gvisor-tap-vsock v0.8.3
	github.com/containers/image/v5 v5.34.0
	github.com/containers/libhvee v0.9.0
	github.com/containers/ocicrypt v1.2.1
	github.com/containers/psgo v1.9.0
	github.com/containers/storage v1.57.1
	github.com/containers/winquit v1.1.0
	github.com/coreos/go-systemd/v22 v22.5.1-0.20231103132048-7d375ecc2b09
	github.com/crc-org/crc/v2 v2.45.0
	github.com/crc-org/vfkit v0.6.0
	github.com/cyphar/filepath-securejoin v0.3.6
	github.com/digitalocean/go-qemu v0.0.0-20230711162256-2e3d0186973e
	github.com/docker/distribution v2.8.3+incompatible
	github.com/docker/docker v27.5.1+incompatible
	github.com/docker/go-connections v0.5.0
	github.com/docker/go-plugins-helpers v0.0.0-20240701071450-45e2431495c8
	github.com/docker/go-units v0.5.0
	github.com/godbus/dbus/v5 v5.1.1-0.20241109141217-c266b19b28e9
	github.com/google/gofuzz v1.2.0
	github.com/google/shlex v0.0.0-20191202100458-e7afc7fbc510
	github.com/google/uuid v1.6.0
	github.com/gorilla/handlers v1.5.2
	github.com/gorilla/mux v1.8.1
	github.com/gorilla/schema v1.4.1
	github.com/hashicorp/go-multierror v1.1.1
	github.com/hugelgupf/p9 v0.3.1-0.20230822151754-54f5c5530921
	github.com/json-iterator/go v1.1.12
	github.com/kevinburke/ssh_config v1.2.0
	github.com/klauspost/pgzip v1.2.6
	github.com/linuxkit/virtsock v0.0.0-20241009230534-cb6a20cc0422
	github.com/mattn/go-shellwords v1.0.12
	github.com/mattn/go-sqlite3 v1.14.24
	github.com/mdlayher/vsock v1.2.1
	github.com/moby/sys/capability v0.4.0
	github.com/moby/sys/user v0.3.0
	github.com/moby/term v0.5.2
	github.com/nxadm/tail v1.4.11
	github.com/onsi/ginkgo/v2 v2.22.2
	github.com/onsi/gomega v1.36.2
	github.com/opencontainers/go-digest v1.0.0
	github.com/opencontainers/image-spec v1.1.0
	github.com/opencontainers/runc v1.2.4
	github.com/opencontainers/runtime-spec v1.2.0
	github.com/opencontainers/runtime-tools v0.9.1-0.20241108202711-f7e3563b0271
	github.com/opencontainers/selinux v1.11.1
	github.com/openshift/imagebuilder v1.2.15
	github.com/rootless-containers/rootlesskit/v2 v2.3.2
	github.com/shirou/gopsutil/v4 v4.24.12
	github.com/sirupsen/logrus v1.9.3
	github.com/spf13/cobra v1.8.1
	github.com/spf13/pflag v1.0.6
	github.com/stretchr/testify v1.10.0
	github.com/vbauerster/mpb/v8 v8.9.1
	github.com/vishvananda/netlink v1.3.1-0.20240922070040-084abd93d350
	go.etcd.io/bbolt v1.3.11
	golang.org/x/crypto v0.32.0
	golang.org/x/exp v0.0.0-20250103183323-7d7fa50e5329
	golang.org/x/net v0.34.0
	golang.org/x/sync v0.10.0
	golang.org/x/sys v0.29.0
	golang.org/x/term v0.28.0
	golang.org/x/text v0.21.0
	google.golang.org/protobuf v1.36.3
	gopkg.in/inf.v0 v0.9.1
	gopkg.in/yaml.v3 v3.0.1
	sigs.k8s.io/yaml v1.4.0
	tags.cncf.io/container-device-interface v0.8.0
)

require (
	dario.cat/mergo v1.0.1 // indirect
	github.com/Azure/go-ansiterm v0.0.0-20250102033503-faa5f7b0171c // indirect
	github.com/Microsoft/hcsshim v0.12.9 // indirect
	github.com/VividCortex/ewma v1.2.0 // indirect
	github.com/acarl005/stripansi v0.0.0-20180116102854-5a71ef0e047d // indirect
	github.com/aead/serpent v0.0.0-20160714141033-fba169763ea6 // indirect
	github.com/asaskevich/govalidator v0.0.0-20230301143203-a9d515a09cc2 // indirect
	github.com/bytedance/sonic v1.11.6 // indirect
	github.com/bytedance/sonic/loader v0.1.1 // indirect
	github.com/chzyer/readline v1.5.1 // indirect
	github.com/cloudwego/base64x v0.1.4 // indirect
	github.com/cloudwego/iasm v0.2.0 // indirect
	github.com/containerd/cgroups/v3 v3.0.3 // indirect
	github.com/containerd/errdefs v1.0.0 // indirect
	github.com/containerd/errdefs/pkg v0.3.0 // indirect
	github.com/containerd/log v0.1.0 // indirect
	github.com/containerd/platforms v1.0.0-rc.1 // indirect
	github.com/containerd/stargz-snapshotter/estargz v0.16.3 // indirect
	github.com/containerd/typeurl/v2 v2.2.3 // indirect
	github.com/containernetworking/cni v1.2.3 // indirect
	github.com/containers/libtrust v0.0.0-20230121012942-c1716e8a8d01 // indirect
	github.com/containers/luksy v0.0.0-20250106202729-a3a812db5b72 // indirect
	github.com/coreos/go-oidc/v3 v3.12.0 // indirect
	github.com/coreos/go-systemd v0.0.0-20190719114852-fd7a80b32e1f // indirect
	github.com/cyberphone/json-canonicalization v0.0.0-20231217050601-ba74d44ecf5f // indirect
	github.com/davecgh/go-spew v1.1.2-0.20180830191138-d8f796af33cc // indirect
	github.com/digitalocean/go-libvirt v0.0.0-20220804181439-8648fbde413e // indirect
	github.com/disiqueira/gotree/v3 v3.0.2 // indirect
	github.com/distribution/reference v0.6.0 // indirect
	github.com/docker/docker-credential-helpers v0.8.2 // indirect
	github.com/ebitengine/purego v0.8.1 // indirect
	github.com/felixge/httpsnoop v1.0.4 // indirect
	github.com/fsnotify/fsnotify v1.8.0 // indirect
	github.com/fsouza/go-dockerclient v1.12.0 // indirect
	github.com/gabriel-vasile/mimetype v1.4.3 // indirect
	github.com/gin-contrib/sse v0.1.0 // indirect
	github.com/gin-gonic/gin v1.10.0 // indirect
	github.com/go-jose/go-jose/v3 v3.0.3 // indirect
	github.com/go-jose/go-jose/v4 v4.0.4 // indirect
	github.com/go-logr/logr v1.4.2 // indirect
	github.com/go-logr/stdr v1.2.2 // indirect
	github.com/go-ole/go-ole v1.3.0 // indirect
	github.com/go-openapi/analysis v0.23.0 // indirect
	github.com/go-openapi/errors v0.22.0 // indirect
	github.com/go-openapi/jsonpointer v0.21.0 // indirect
	github.com/go-openapi/jsonreference v0.21.0 // indirect
	github.com/go-openapi/loads v0.22.0 // indirect
	github.com/go-openapi/runtime v0.28.0 // indirect
	github.com/go-openapi/spec v0.21.0 // indirect
	github.com/go-openapi/strfmt v0.23.0 // indirect
	github.com/go-openapi/swag v0.23.0 // indirect
	github.com/go-openapi/validate v0.24.0 // indirect
	github.com/go-playground/locales v0.14.1 // indirect
	github.com/go-playground/universal-translator v0.18.1 // indirect
	github.com/go-playground/validator/v10 v10.20.0 // indirect
	github.com/go-task/slim-sprig/v3 v3.0.0 // indirect
	github.com/goccy/go-json v0.10.2 // indirect
	github.com/gogo/protobuf v1.3.2 // indirect
	github.com/golang/groupcache v0.0.0-20210331224755-41bb18bfe9da // indirect
	github.com/golang/protobuf v1.5.4 // indirect
	github.com/google/go-cmp v0.6.0 // indirect
	github.com/google/go-containerregistry v0.20.2 // indirect
	github.com/google/go-intervals v0.0.2 // indirect
	github.com/google/pprof v0.0.0-20241210010833-40e02aabc2ad // indirect
	github.com/hashicorp/errwrap v1.1.0 // indirect
	github.com/hashicorp/go-cleanhttp v0.5.2 // indirect
	github.com/hashicorp/go-retryablehttp v0.7.7 // indirect
	github.com/inconshreveable/mousetrap v1.1.0 // indirect
	github.com/jinzhu/copier v0.4.0 // indirect
	github.com/josharian/intern v1.0.0 // indirect
	github.com/klauspost/compress v1.17.11 // indirect
	github.com/klauspost/cpuid/v2 v2.2.9 // indirect
	github.com/kr/fs v0.1.0 // indirect
	github.com/leodido/go-urn v1.4.0 // indirect
	github.com/letsencrypt/boulder v0.0.0-20240620165639-de9c06129bec // indirect
	github.com/lufia/plan9stats v0.0.0-20211012122336-39d0f177ccd0 // indirect
	github.com/mailru/easyjson v0.7.7 // indirect
	github.com/manifoldco/promptui v0.9.0 // indirect
	github.com/mattn/go-colorable v0.1.13 // indirect
	github.com/mattn/go-isatty v0.0.20 // indirect
	github.com/mattn/go-runewidth v0.0.16 // indirect
	github.com/mdlayher/socket v0.4.1 // indirect
	github.com/miekg/pkcs11 v1.1.1 // indirect
	github.com/mistifyio/go-zfs/v3 v3.0.1 // indirect
	github.com/mitchellh/mapstructure v1.5.0 // indirect
	github.com/moby/buildkit v0.19.0 // indirect
	github.com/moby/docker-image-spec v1.3.1 // indirect
	github.com/moby/patternmatcher v0.6.0 // indirect
	github.com/moby/sys/mountinfo v0.7.2 // indirect
	github.com/moby/sys/sequential v0.6.0 // indirect
	github.com/moby/sys/userns v0.1.0 // indirect
	github.com/modern-go/concurrent v0.0.0-20180306012644-bacd9c7ef1dd // indirect
	github.com/modern-go/reflect2 v1.0.2 // indirect
	github.com/morikuni/aec v1.0.0 // indirect
	github.com/oklog/ulid v1.3.1 // indirect
	github.com/opentracing/opentracing-go v1.2.0 // indirect
	github.com/ostreedev/ostree-go v0.0.0-20210805093236-719684c64e4f // indirect
	github.com/pelletier/go-toml/v2 v2.2.2 // indirect
	github.com/pkg/errors v0.9.1 // indirect
	github.com/pkg/sftp v1.13.7 // indirect
	github.com/planetscale/vtprotobuf v0.6.1-0.20240319094008-0393e58bdf10 // indirect
	github.com/pmezard/go-difflib v1.0.1-0.20181226105442-5d4384ee4fb2 // indirect
	github.com/power-devops/perfstat v0.0.0-20210106213030-5aafc221ea8c // indirect
	github.com/proglottis/gpgme v0.1.4 // indirect
	github.com/rivo/uniseg v0.4.7 // indirect
	github.com/seccomp/libseccomp-golang v0.10.0 // indirect
	github.com/secure-systems-lab/go-securesystemslib v0.9.0 // indirect
	github.com/segmentio/ksuid v1.0.4 // indirect
	github.com/sigstore/fulcio v1.6.4 // indirect
	github.com/sigstore/rekor v1.3.8 // indirect
	github.com/sigstore/sigstore v1.8.12 // indirect
	github.com/skeema/knownhosts v1.3.0 // indirect
	github.com/skratchdot/open-golang v0.0.0-20200116055534-eef842397966 // indirect
	github.com/smallstep/pkcs7 v0.1.1 // indirect
	github.com/stefanberger/go-pkcs11uri v0.0.0-20230803200340-78284954bff6 // indirect
	github.com/sylabs/sif/v2 v2.20.2 // indirect
	github.com/syndtr/gocapability v0.0.0-20200815063812-42c35b437635 // indirect
	github.com/tchap/go-patricia/v2 v2.3.2 // indirect
	github.com/titanous/rocacheck v0.0.0-20171023193734-afe73141d399 // indirect
	github.com/tklauser/go-sysconf v0.3.12 // indirect
	github.com/tklauser/numcpus v0.6.1 // indirect
	github.com/twitchyliquid64/golang-asm v0.15.1 // indirect
	github.com/u-root/uio v0.0.0-20240224005618-d2acac8f3701 // indirect
	github.com/ugorji/go/codec v1.2.12 // indirect
	github.com/ulikunitz/xz v0.5.12 // indirect
	github.com/vbatts/tar-split v0.11.7 // indirect
	github.com/vishvananda/netns v0.0.4 // indirect
	github.com/yusufpapurcu/wmi v1.2.4 // indirect
	go.mongodb.org/mongo-driver v1.14.0 // indirect
	go.opencensus.io v0.24.0 // indirect
	go.opentelemetry.io/contrib/instrumentation/net/http/otelhttp v0.56.0 // indirect
	go.opentelemetry.io/otel v1.31.0 // indirect
	go.opentelemetry.io/otel/metric v1.31.0 // indirect
	go.opentelemetry.io/otel/trace v1.31.0 // indirect
	golang.org/x/arch v0.8.0 // indirect
	golang.org/x/mod v0.22.0 // indirect
	golang.org/x/oauth2 v0.25.0 // indirect
	golang.org/x/time v0.9.0 // indirect
	golang.org/x/tools v0.28.0 // indirect
	google.golang.org/genproto/googleapis/rpc v0.0.0-20250102185135-69823020774d // indirect
	google.golang.org/grpc v1.69.4 // indirect
	gopkg.in/natefinch/lumberjack.v2 v2.2.1 // indirect
	gopkg.in/tomb.v1 v1.0.0-20141024135613-dd632973f1e7 // indirect
	tags.cncf.io/container-device-interface/specs-go v0.8.0 // indirect
)
